{
    "page": 1,
    "per_page": 6,
    "total": 1106,
    "total_pages": 185,
    "data": [
        {
            "id": 3,
            "flightName": "AirIndia",
            "Country": "India",
            "Destinations": "47",
            "URL": "https:\/\/en.wikipedia.org\/wiki\/Air_India"
        },
        {
            "id": 6,
            "flightName": "AirIndia",
            "Country": "India",
            "Destinations": "77",
            "URL": "https:\/\/en.wikipedia.org\/wiki\/Air_India"
        },
        {
            "id": 8,
            "flightName": "American Airlines",
            "Country": "USA",
            "Destinations": "63",
            "URL": "https:\/\/en.wikipedia.org\/wiki\/American_Airlines"
        },
        {
            "id": 18,
            "flightName": "AirIndia",
            "Country": "India",
            "Destinations": "87",
            "URL": "https:\/\/en.wikipedia.org\/wiki\/Air_India"
        },
        {
            "id": 22,
            "flightName": "AirIndia",
            "Country": "India",
            "Destinations": "87",
            "URL": "https:\/\/en.wikipedia.org\/wiki\/Air_India"
        },
        {
            "id": 23,
            "flightName": "AirIndia",
            "Country": "India",
            "Destinations": "87",
            "URL": "https:\/\/en.wikipedia.org\/wiki\/Air_India"
        }
    ],
    "support": {
        "url": "https:\/\/omrbranch.com",
        "text": "For Joining Automation Course, Please Contact-Velmurugan 9944152058"
    }
}
